{
  "expoServerNgrokUrl": "https://q9-r9c.mohamed154.elbes.exp.direct",
  "packagerNgrokUrl": "https://packager.q9-r9c.mohamed154.elbes.exp.direct",
  "ngrokPid": 9676,
  "expoServerPort": 19000,
  "devToolsPort": 19002,
  "packagerPort": 19001,
  "packagerPid": 19104,
  "webpackServerPort": null
}